^C:\USERS\AARON\ONEDRIVE\DOCUMENTS\SP3_TSL3\NYP_FRAMEWORK_GAMEDEV\BASE\RELEASE\AMMO.OBJ|C:\USERS\AARON\ONEDRIVE\DOCUMENTS\SP3_TSL3\NYP_FRAMEWORK_GAMEDEV\BASE\RELEASE\ANIMATION.OBJ|C:\USERS\AARON\ONEDRIVE\DOCUMENTS\SP3_TSL3\NYP_FRAMEWORK_GAMEDEV\BASE\RELEASE\APPLICATION.OBJ|C:\USERS\AARON\ONEDRIVE\DOCUMENTS\SP3_TSL3\NYP_FRAMEWORK_GAMEDEV\BASE\RELEASE\BANDAGE.OBJ|C:\USERS\AARON\ONEDRIVE\DOCUMENTS\SP3_TSL3\NYP_FRAMEWORK_GAMEDEV\BASE\RELEASE\CAMERAEFFECTS.OBJ|C:\USERS\AARON\ONEDRIVE\DOCUMENTS\SP3_TSL3\NYP_FRAMEWORK_GAMEDEV\BASE\RELEASE\CONTROLLER.OBJ|C:\USERS\AARON\ONEDRIVE\DOCUMENTS\SP3_TSL3\NYP_FRAMEWORK_GAMEDEV\BASE\RELEASE\ENEMY.OBJ|C:\USERS\AARON\ONEDRIVE\DOCUMENTS\SP3_TSL3\NYP_FRAMEWORK_GAMEDEV\BASE\RELEASE\ENEMY3D.OBJ|C:\USERS\AARON\ONEDRIVE\DOCUMENTS\SP3_TSL3\NYP_FRAMEWORK_GAMEDEV\BASE\RELEASE\ENTITYMANAGER.OBJ|C:\USERS\AARON\ONEDRIVE\DOCUMENTS\SP3_TSL3\NYP_FRAMEWORK_GAMEDEV\BASE\RELEASE\FPSCAMERA.OBJ|C:\USERS\AARON\ONEDRIVE\DOCUMENTS\SP3_TSL3\NYP_FRAMEWORK_GAMEDEV\BASE\RELEASE\GENERICENTITY.OBJ|C:\USERS\AARON\ONEDRIVE\DOCUMENTS\SP3_TSL3\NYP_FRAMEWORK_GAMEDEV\BASE\RELEASE\GOODIES.OBJ|C:\USERS\AARON\ONEDRIVE\DOCUMENTS\SP3_TSL3\NYP_FRAMEWORK_GAMEDEV\BASE\RELEASE\GOODIESFACTORY.OBJ|C:\USERS\AARON\ONEDRIVE\DOCUMENTS\SP3_TSL3\NYP_FRAMEWORK_GAMEDEV\BASE\RELEASE\GRENADE.OBJ|C:\USERS\AARON\ONEDRIVE\DOCUMENTS\SP3_TSL3\NYP_FRAMEWORK_GAMEDEV\BASE\RELEASE\GROUNDENTITY.OBJ|C:\USERS\AARON\ONEDRIVE\DOCUMENTS\SP3_TSL3\NYP_FRAMEWORK_GAMEDEV\BASE\RELEASE\HANDCANNON.OBJ|C:\USERS\AARON\ONEDRIVE\DOCUMENTS\SP3_TSL3\NYP_FRAMEWORK_GAMEDEV\BASE\RELEASE\HIGHSCORE.OBJ|C:\USERS\AARON\ONEDRIVE\DOCUMENTS\SP3_TSL3\NYP_FRAMEWORK_GAMEDEV\BASE\RELEASE\INVENTORYINFO.OBJ|C:\USERS\AARON\ONEDRIVE\DOCUMENTS\SP3_TSL3\NYP_FRAMEWORK_GAMEDEV\BASE\RELEASE\ITEMINFO.OBJ|C:\USERS\AARON\ONEDRIVE\DOCUMENTS\SP3_TSL3\NYP_FRAMEWORK_GAMEDEV\BASE\RELEASE\KEYBOARD.OBJ|C:\USERS\AARON\ONEDRIVE\DOCUMENTS\SP3_TSL3\NYP_FRAMEWORK_GAMEDEV\BASE\RELEASE\LIGHT.OBJ|C:\USERS\AARON\ONEDRIVE\DOCUMENTS\SP3_TSL3\NYP_FRAMEWORK_GAMEDEV\BASE\RELEASE\MAIN.OBJ|C:\USERS\AARON\ONEDRIVE\DOCUMENTS\SP3_TSL3\NYP_FRAMEWORK_GAMEDEV\BASE\RELEASE\MAP.OBJ|C:\USERS\AARON\ONEDRIVE\DOCUMENTS\SP3_TSL3\NYP_FRAMEWORK_GAMEDEV\BASE\RELEASE\MINIMAP.OBJ|C:\USERS\AARON\ONEDRIVE\DOCUMENTS\SP3_TSL3\NYP_FRAMEWORK_GAMEDEV\BASE\RELEASE\MOUSE.OBJ|C:\USERS\AARON\ONEDRIVE\DOCUMENTS\SP3_TSL3\NYP_FRAMEWORK_GAMEDEV\BASE\RELEASE\OBJMESH.OBJ|C:\USERS\AARON\ONEDRIVE\DOCUMENTS\SP3_TSL3\NYP_FRAMEWORK_GAMEDEV\BASE\RELEASE\PARTICLE.OBJ|C:\USERS\AARON\ONEDRIVE\DOCUMENTS\SP3_TSL3\NYP_FRAMEWORK_GAMEDEV\BASE\RELEASE\PISTOL.OBJ|C:\USERS\AARON\ONEDRIVE\DOCUMENTS\SP3_TSL3\NYP_FRAMEWORK_GAMEDEV\BASE\RELEASE\PLAYERINFO.OBJ|C:\USERS\AARON\ONEDRIVE\DOCUMENTS\SP3_TSL3\NYP_FRAMEWORK_GAMEDEV\BASE\RELEASE\PLAYERINFO2D.OBJ|C:\USERS\AARON\ONEDRIVE\DOCUMENTS\SP3_TSL3\NYP_FRAMEWORK_GAMEDEV\BASE\RELEASE\PROJECTILE.OBJ|C:\USERS\AARON\ONEDRIVE\DOCUMENTS\SP3_TSL3\NYP_FRAMEWORK_GAMEDEV\BASE\RELEASE\RAILGUN.OBJ|C:\USERS\AARON\ONEDRIVE\DOCUMENTS\SP3_TSL3\NYP_FRAMEWORK_GAMEDEV\BASE\RELEASE\REVOLVER.OBJ|C:\USERS\AARON\ONEDRIVE\DOCUMENTS\SP3_TSL3\NYP_FRAMEWORK_GAMEDEV\BASE\RELEASE\RIFLE.OBJ|C:\USERS\AARON\ONEDRIVE\DOCUMENTS\SP3_TSL3\NYP_FRAMEWORK_GAMEDEV\BASE\RELEASE\SCAR.OBJ|C:\USERS\AARON\ONEDRIVE\DOCUMENTS\SP3_TSL3\NYP_FRAMEWORK_GAMEDEV\BASE\RELEASE\SCENE2D.OBJ|C:\USERS\AARON\ONEDRIVE\DOCUMENTS\SP3_TSL3\NYP_FRAMEWORK_GAMEDEV\BASE\RELEASE\SCENETEXT.OBJ|C:\USERS\AARON\ONEDRIVE\DOCUMENTS\SP3_TSL3\NYP_FRAMEWORK_GAMEDEV\BASE\RELEASE\SHOTGUN.OBJ|C:\USERS\AARON\ONEDRIVE\DOCUMENTS\SP3_TSL3\NYP_FRAMEWORK_GAMEDEV\BASE\RELEASE\SKYBOXENTITY.OBJ|C:\USERS\AARON\ONEDRIVE\DOCUMENTS\SP3_TSL3\NYP_FRAMEWORK_GAMEDEV\BASE\RELEASE\SMG.OBJ|C:\USERS\AARON\ONEDRIVE\DOCUMENTS\SP3_TSL3\NYP_FRAMEWORK_GAMEDEV\BASE\RELEASE\SNIPER.OBJ|C:\USERS\AARON\ONEDRIVE\DOCUMENTS\SP3_TSL3\NYP_FRAMEWORK_GAMEDEV\BASE\RELEASE\SOUNDENGINE.OBJ|C:\USERS\AARON\ONEDRIVE\DOCUMENTS\SP3_TSL3\NYP_FRAMEWORK_GAMEDEV\BASE\RELEASE\SPRITEANIMATION.OBJ|C:\USERS\AARON\ONEDRIVE\DOCUMENTS\SP3_TSL3\NYP_FRAMEWORK_GAMEDEV\BASE\RELEASE\SPRITEENTITY.OBJ|C:\USERS\AARON\ONEDRIVE\DOCUMENTS\SP3_TSL3\NYP_FRAMEWORK_GAMEDEV\BASE\RELEASE\STRATEGY.OBJ|C:\USERS\AARON\ONEDRIVE\DOCUMENTS\SP3_TSL3\NYP_FRAMEWORK_GAMEDEV\BASE\RELEASE\STRATEGY_KILL.OBJ|C:\USERS\AARON\ONEDRIVE\DOCUMENTS\SP3_TSL3\NYP_FRAMEWORK_GAMEDEV\BASE\RELEASE\TEXTENTITY.OBJ|C:\USERS\AARON\ONEDRIVE\DOCUMENTS\SP3_TSL3\NYP_FRAMEWORK_GAMEDEV\BASE\RELEASE\TREASURECHEST.OBJ|C:\USERS\AARON\ONEDRIVE\DOCUMENTS\SP3_TSL3\NYP_FRAMEWORK_GAMEDEV\BASE\RELEASE\WEAPONINFO.OBJ
C:\WINDOWS\GLOBALIZATION\SORTING\SORTDEFAULT.NLS
C:\PROGRAM FILES (X86)\MICROSOFT VISUAL STUDIO 14.0\VC\LIB\LEGACY_STDIO_DEFINITIONS.LIB
C:\USERS\AARON\ONEDRIVE\DOCUMENTS\SP3_TSL3\NYP_FRAMEWORK_GAMEDEV\RELEASE\COMMON.LIB
C:\PROGRAM FILES (X86)\WINDOWS KITS\8.1\LIB\WINV6.3\UM\X86\WINMM.LIB
C:\PROGRAM FILES (X86)\WINDOWS KITS\8.1\LIB\WINV6.3\UM\X86\OPENGL32.LIB
C:\PROGRAM FILES (X86)\WINDOWS KITS\8.1\LIB\WINV6.3\UM\X86\GLU32.LIB
C:\USERS\AARON\ONEDRIVE\DOCUMENTS\SP3_TSL3\NYP_FRAMEWORK_GAMEDEV\GLEW\LIB\GLEW32.LIB
C:\USERS\AARON\ONEDRIVE\DOCUMENTS\SP3_TSL3\NYP_FRAMEWORK_GAMEDEV\GLFW\LIB-MSVC100\GLFW3.LIB
C:\USERS\AARON\ONEDRIVE\DOCUMENTS\SP3_TSL3\NYP_FRAMEWORK_GAMEDEV\IRRKLANG\LIB\WIN32-VISUALSTUDIO\IRRKLANG.LIB
C:\PROGRAM FILES (X86)\WINDOWS KITS\8.1\LIB\WINV6.3\UM\X86\KERNEL32.LIB
C:\PROGRAM FILES (X86)\WINDOWS KITS\8.1\LIB\WINV6.3\UM\X86\USER32.LIB
C:\PROGRAM FILES (X86)\WINDOWS KITS\8.1\LIB\WINV6.3\UM\X86\GDI32.LIB
C:\PROGRAM FILES (X86)\WINDOWS KITS\8.1\LIB\WINV6.3\UM\X86\WINSPOOL.LIB
C:\PROGRAM FILES (X86)\WINDOWS KITS\8.1\LIB\WINV6.3\UM\X86\COMDLG32.LIB
C:\PROGRAM FILES (X86)\WINDOWS KITS\8.1\LIB\WINV6.3\UM\X86\ADVAPI32.LIB
C:\PROGRAM FILES (X86)\WINDOWS KITS\8.1\LIB\WINV6.3\UM\X86\SHELL32.LIB
C:\PROGRAM FILES (X86)\WINDOWS KITS\8.1\LIB\WINV6.3\UM\X86\OLE32.LIB
C:\PROGRAM FILES (X86)\WINDOWS KITS\8.1\LIB\WINV6.3\UM\X86\OLEAUT32.LIB
C:\PROGRAM FILES (X86)\WINDOWS KITS\8.1\LIB\WINV6.3\UM\X86\UUID.LIB
C:\PROGRAM FILES (X86)\WINDOWS KITS\8.1\LIB\WINV6.3\UM\X86\ODBC32.LIB
C:\PROGRAM FILES (X86)\WINDOWS KITS\8.1\LIB\WINV6.3\UM\X86\ODBCCP32.LIB
C:\USERS\AARON\ONEDRIVE\DOCUMENTS\SP3_TSL3\NYP_FRAMEWORK_GAMEDEV\BASE\RELEASE\APPLICATION.OBJ
C:\USERS\AARON\ONEDRIVE\DOCUMENTS\SP3_TSL3\NYP_FRAMEWORK_GAMEDEV\BASE\RELEASE\CAMERAEFFECTS.OBJ
C:\USERS\AARON\ONEDRIVE\DOCUMENTS\SP3_TSL3\NYP_FRAMEWORK_GAMEDEV\BASE\RELEASE\ENEMY3D.OBJ
C:\USERS\AARON\ONEDRIVE\DOCUMENTS\SP3_TSL3\NYP_FRAMEWORK_GAMEDEV\BASE\RELEASE\ENTITYMANAGER.OBJ
C:\USERS\AARON\ONEDRIVE\DOCUMENTS\SP3_TSL3\NYP_FRAMEWORK_GAMEDEV\BASE\RELEASE\FPSCAMERA.OBJ
C:\USERS\AARON\ONEDRIVE\DOCUMENTS\SP3_TSL3\NYP_FRAMEWORK_GAMEDEV\BASE\RELEASE\GENERICENTITY.OBJ
C:\USERS\AARON\ONEDRIVE\DOCUMENTS\SP3_TSL3\NYP_FRAMEWORK_GAMEDEV\BASE\RELEASE\GROUNDENTITY.OBJ
C:\USERS\AARON\ONEDRIVE\DOCUMENTS\SP3_TSL3\NYP_FRAMEWORK_GAMEDEV\BASE\RELEASE\CONTROLLER.OBJ
C:\USERS\AARON\ONEDRIVE\DOCUMENTS\SP3_TSL3\NYP_FRAMEWORK_GAMEDEV\BASE\RELEASE\KEYBOARD.OBJ
C:\USERS\AARON\ONEDRIVE\DOCUMENTS\SP3_TSL3\NYP_FRAMEWORK_GAMEDEV\BASE\RELEASE\MOUSE.OBJ
C:\USERS\AARON\ONEDRIVE\DOCUMENTS\SP3_TSL3\NYP_FRAMEWORK_GAMEDEV\BASE\RELEASE\HIGHSCORE.OBJ
C:\USERS\AARON\ONEDRIVE\DOCUMENTS\SP3_TSL3\NYP_FRAMEWORK_GAMEDEV\BASE\RELEASE\AMMO.OBJ
C:\USERS\AARON\ONEDRIVE\DOCUMENTS\SP3_TSL3\NYP_FRAMEWORK_GAMEDEV\BASE\RELEASE\BANDAGE.OBJ
C:\USERS\AARON\ONEDRIVE\DOCUMENTS\SP3_TSL3\NYP_FRAMEWORK_GAMEDEV\BASE\RELEASE\GRENADE.OBJ
C:\USERS\AARON\ONEDRIVE\DOCUMENTS\SP3_TSL3\NYP_FRAMEWORK_GAMEDEV\BASE\RELEASE\ITEMINFO.OBJ
C:\USERS\AARON\ONEDRIVE\DOCUMENTS\SP3_TSL3\NYP_FRAMEWORK_GAMEDEV\BASE\RELEASE\LIGHT.OBJ
C:\USERS\AARON\ONEDRIVE\DOCUMENTS\SP3_TSL3\NYP_FRAMEWORK_GAMEDEV\BASE\RELEASE\MAIN.OBJ
C:\USERS\AARON\ONEDRIVE\DOCUMENTS\SP3_TSL3\NYP_FRAMEWORK_GAMEDEV\BASE\RELEASE\MINIMAP.OBJ
C:\USERS\AARON\ONEDRIVE\DOCUMENTS\SP3_TSL3\NYP_FRAMEWORK_GAMEDEV\BASE\RELEASE\OBJMESH.OBJ
C:\USERS\AARON\ONEDRIVE\DOCUMENTS\SP3_TSL3\NYP_FRAMEWORK_GAMEDEV\BASE\RELEASE\PARTICLE.OBJ
C:\USERS\AARON\ONEDRIVE\DOCUMENTS\SP3_TSL3\NYP_FRAMEWORK_GAMEDEV\BASE\RELEASE\INVENTORYINFO.OBJ
C:\USERS\AARON\ONEDRIVE\DOCUMENTS\SP3_TSL3\NYP_FRAMEWORK_GAMEDEV\BASE\RELEASE\PLAYERINFO.OBJ
C:\USERS\AARON\ONEDRIVE\DOCUMENTS\SP3_TSL3\NYP_FRAMEWORK_GAMEDEV\BASE\RELEASE\PROJECTILE.OBJ
C:\USERS\AARON\ONEDRIVE\DOCUMENTS\SP3_TSL3\NYP_FRAMEWORK_GAMEDEV\BASE\RELEASE\ANIMATION.OBJ
C:\USERS\AARON\ONEDRIVE\DOCUMENTS\SP3_TSL3\NYP_FRAMEWORK_GAMEDEV\BASE\RELEASE\ENEMY.OBJ
C:\USERS\AARON\ONEDRIVE\DOCUMENTS\SP3_TSL3\NYP_FRAMEWORK_GAMEDEV\BASE\RELEASE\GOODIES.OBJ
C:\USERS\AARON\ONEDRIVE\DOCUMENTS\SP3_TSL3\NYP_FRAMEWORK_GAMEDEV\BASE\RELEASE\GOODIESFACTORY.OBJ
C:\USERS\AARON\ONEDRIVE\DOCUMENTS\SP3_TSL3\NYP_FRAMEWORK_GAMEDEV\BASE\RELEASE\MAP.OBJ
C:\USERS\AARON\ONEDRIVE\DOCUMENTS\SP3_TSL3\NYP_FRAMEWORK_GAMEDEV\BASE\RELEASE\PLAYERINFO2D.OBJ
C:\USERS\AARON\ONEDRIVE\DOCUMENTS\SP3_TSL3\NYP_FRAMEWORK_GAMEDEV\BASE\RELEASE\SCENE2D.OBJ
C:\USERS\AARON\ONEDRIVE\DOCUMENTS\SP3_TSL3\NYP_FRAMEWORK_GAMEDEV\BASE\RELEASE\STRATEGY.OBJ
C:\USERS\AARON\ONEDRIVE\DOCUMENTS\SP3_TSL3\NYP_FRAMEWORK_GAMEDEV\BASE\RELEASE\STRATEGY_KILL.OBJ
C:\USERS\AARON\ONEDRIVE\DOCUMENTS\SP3_TSL3\NYP_FRAMEWORK_GAMEDEV\BASE\RELEASE\TREASURECHEST.OBJ
C:\USERS\AARON\ONEDRIVE\DOCUMENTS\SP3_TSL3\NYP_FRAMEWORK_GAMEDEV\BASE\RELEASE\SCENETEXT.OBJ
C:\USERS\AARON\ONEDRIVE\DOCUMENTS\SP3_TSL3\NYP_FRAMEWORK_GAMEDEV\BASE\RELEASE\SKYBOXENTITY.OBJ
C:\USERS\AARON\ONEDRIVE\DOCUMENTS\SP3_TSL3\NYP_FRAMEWORK_GAMEDEV\BASE\RELEASE\SOUNDENGINE.OBJ
C:\USERS\AARON\ONEDRIVE\DOCUMENTS\SP3_TSL3\NYP_FRAMEWORK_GAMEDEV\BASE\RELEASE\SPRITEANIMATION.OBJ
C:\USERS\AARON\ONEDRIVE\DOCUMENTS\SP3_TSL3\NYP_FRAMEWORK_GAMEDEV\BASE\RELEASE\SPRITEENTITY.OBJ
C:\USERS\AARON\ONEDRIVE\DOCUMENTS\SP3_TSL3\NYP_FRAMEWORK_GAMEDEV\BASE\RELEASE\TEXTENTITY.OBJ
C:\USERS\AARON\ONEDRIVE\DOCUMENTS\SP3_TSL3\NYP_FRAMEWORK_GAMEDEV\BASE\RELEASE\HANDCANNON.OBJ
C:\USERS\AARON\ONEDRIVE\DOCUMENTS\SP3_TSL3\NYP_FRAMEWORK_GAMEDEV\BASE\RELEASE\PISTOL.OBJ
C:\USERS\AARON\ONEDRIVE\DOCUMENTS\SP3_TSL3\NYP_FRAMEWORK_GAMEDEV\BASE\RELEASE\RAILGUN.OBJ
C:\USERS\AARON\ONEDRIVE\DOCUMENTS\SP3_TSL3\NYP_FRAMEWORK_GAMEDEV\BASE\RELEASE\REVOLVER.OBJ
C:\USERS\AARON\ONEDRIVE\DOCUMENTS\SP3_TSL3\NYP_FRAMEWORK_GAMEDEV\BASE\RELEASE\RIFLE.OBJ
C:\USERS\AARON\ONEDRIVE\DOCUMENTS\SP3_TSL3\NYP_FRAMEWORK_GAMEDEV\BASE\RELEASE\SCAR.OBJ
C:\USERS\AARON\ONEDRIVE\DOCUMENTS\SP3_TSL3\NYP_FRAMEWORK_GAMEDEV\BASE\RELEASE\SHOTGUN.OBJ
C:\USERS\AARON\ONEDRIVE\DOCUMENTS\SP3_TSL3\NYP_FRAMEWORK_GAMEDEV\BASE\RELEASE\SMG.OBJ
C:\USERS\AARON\ONEDRIVE\DOCUMENTS\SP3_TSL3\NYP_FRAMEWORK_GAMEDEV\BASE\RELEASE\SNIPER.OBJ
C:\USERS\AARON\ONEDRIVE\DOCUMENTS\SP3_TSL3\NYP_FRAMEWORK_GAMEDEV\BASE\RELEASE\WEAPONINFO.OBJ
C:\PROGRAM FILES (X86)\MICROSOFT VISUAL STUDIO 14.0\VC\BIN\C2.DLL
C:\PROGRAM FILES (X86)\MICROSOFT VISUAL STUDIO 14.0\VC\LIB\MSVCPRT.LIB
C:\PROGRAM FILES (X86)\MICROSOFT VISUAL STUDIO 14.0\VC\LIB\MSVCRT.LIB
C:\PROGRAM FILES (X86)\MICROSOFT VISUAL STUDIO 14.0\VC\LIB\OLDNAMES.LIB
C:\PROGRAM FILES (X86)\MICROSOFT VISUAL STUDIO 14.0\VC\LIB\VCRUNTIME.LIB
C:\PROGRAM FILES (X86)\WINDOWS KITS\10\LIB\10.0.10240.0\UCRT\X86\UCRT.LIB
C:\PROGRAM FILES (X86)\MICROSOFT VISUAL STUDIO 14.0\VC\LIB\LEGACY_STDIO_WIDE_SPECIFIERS.LIB
C:\PROGRAM FILES (X86)\MICROSOFT VISUAL STUDIO 14.0\VC\BIN\1033\LINKUI.DLL
C:\USERS\AARON\ONEDRIVE\DOCUMENTS\SP3_TSL3\NYP_FRAMEWORK_GAMEDEV\RELEASE\BASE.IPDB
C:\USERS\AARON\ONEDRIVE\DOCUMENTS\SP3_TSL3\NYP_FRAMEWORK_GAMEDEV\RELEASE\BASE.IOBJ
C:\PROGRAM FILES (X86)\WINDOWS KITS\8.1\BIN\X86\RC.EXE
C:\PROGRAM FILES (X86)\MICROSOFT VISUAL STUDIO 14.0\VC\BIN\CVTRES.EXE
C:\WINDOWS\SYSTEM32\TZRES.DLL
