^C:\USERS\WYVERNK\DESKTOP\NYP_FRAMEWORK_GAMEDEV\COMMON\DEBUG\CAMERABASE.OBJ|C:\USERS\WYVERNK\DESKTOP\NYP_FRAMEWORK_GAMEDEV\COMMON\DEBUG\COLLIDER.OBJ|C:\USERS\WYVERNK\DESKTOP\NYP_FRAMEWORK_GAMEDEV\COMMON\DEBUG\ENTITYBASE.OBJ|C:\USERS\WYVERNK\DESKTOP\NYP_FRAMEWORK_GAMEDEV\COMMON\DEBUG\GRAPHICSMANAGER.OBJ|C:\USERS\WYVERNK\DESKTOP\NYP_FRAMEWORK_GAMEDEV\COMMON\DEBUG\KEYBOARDCONTROLLER.OBJ|C:\USERS\WYVERNK\DESKTOP\NYP_FRAMEWORK_GAMEDEV\COMMON\DEBUG\LIGHTBASE.OBJ|C:\USERS\WYVERNK\DESKTOP\NYP_FRAMEWORK_GAMEDEV\COMMON\DEBUG\LOADOBJ.OBJ|C:\USERS\WYVERNK\DESKTOP\NYP_FRAMEWORK_GAMEDEV\COMMON\DEBUG\LOADTGA.OBJ|C:\USERS\WYVERNK\DESKTOP\NYP_FRAMEWORK_GAMEDEV\COMMON\DEBUG\MATHUTILITY.OBJ|C:\USERS\WYVERNK\DESKTOP\NYP_FRAMEWORK_GAMEDEV\COMMON\DEBUG\MATRIXSTACK.OBJ|C:\USERS\WYVERNK\DESKTOP\NYP_FRAMEWORK_GAMEDEV\COMMON\DEBUG\MESH.OBJ|C:\USERS\WYVERNK\DESKTOP\NYP_FRAMEWORK_GAMEDEV\COMMON\DEBUG\MESHBUILDER.OBJ|C:\USERS\WYVERNK\DESKTOP\NYP_FRAMEWORK_GAMEDEV\COMMON\DEBUG\MOUSECONTROLLER.OBJ|C:\USERS\WYVERNK\DESKTOP\NYP_FRAMEWORK_GAMEDEV\COMMON\DEBUG\MTX44.OBJ|C:\USERS\WYVERNK\DESKTOP\NYP_FRAMEWORK_GAMEDEV\COMMON\DEBUG\RENDERHELPER.OBJ|C:\USERS\WYVERNK\DESKTOP\NYP_FRAMEWORK_GAMEDEV\COMMON\DEBUG\SCENEMANAGER.OBJ|C:\USERS\WYVERNK\DESKTOP\NYP_FRAMEWORK_GAMEDEV\COMMON\DEBUG\SHADERPROGRAM.OBJ|C:\USERS\WYVERNK\DESKTOP\NYP_FRAMEWORK_GAMEDEV\COMMON\DEBUG\TIMER.OBJ|C:\USERS\WYVERNK\DESKTOP\NYP_FRAMEWORK_GAMEDEV\COMMON\DEBUG\UTILITY.OBJ|C:\USERS\WYVERNK\DESKTOP\NYP_FRAMEWORK_GAMEDEV\COMMON\DEBUG\VECTOR2.OBJ|C:\USERS\WYVERNK\DESKTOP\NYP_FRAMEWORK_GAMEDEV\COMMON\DEBUG\VECTOR3.OBJ|C:\USERS\WYVERNK\DESKTOP\NYP_FRAMEWORK_GAMEDEV\COMMON\DEBUG\WIN32INPUT.OBJ
C:\WINDOWS\GLOBALIZATION\SORTING\SORTDEFAULT.NLS
C:\USERS\WYVERNK\DESKTOP\NYP_FRAMEWORK_GAMEDEV\COMMON\DEBUG\CAMERABASE.OBJ
C:\WINDOWS\SYSTEM32\TZRES.DLL
C:\USERS\WYVERNK\DESKTOP\NYP_FRAMEWORK_GAMEDEV\COMMON\DEBUG\COLLIDER.OBJ
C:\USERS\WYVERNK\DESKTOP\NYP_FRAMEWORK_GAMEDEV\COMMON\DEBUG\ENTITYBASE.OBJ
C:\USERS\WYVERNK\DESKTOP\NYP_FRAMEWORK_GAMEDEV\COMMON\DEBUG\GRAPHICSMANAGER.OBJ
C:\USERS\WYVERNK\DESKTOP\NYP_FRAMEWORK_GAMEDEV\COMMON\DEBUG\KEYBOARDCONTROLLER.OBJ
C:\USERS\WYVERNK\DESKTOP\NYP_FRAMEWORK_GAMEDEV\COMMON\DEBUG\LIGHTBASE.OBJ
C:\USERS\WYVERNK\DESKTOP\NYP_FRAMEWORK_GAMEDEV\COMMON\DEBUG\LOADOBJ.OBJ
C:\USERS\WYVERNK\DESKTOP\NYP_FRAMEWORK_GAMEDEV\COMMON\DEBUG\LOADTGA.OBJ
C:\USERS\WYVERNK\DESKTOP\NYP_FRAMEWORK_GAMEDEV\COMMON\DEBUG\MATHUTILITY.OBJ
C:\USERS\WYVERNK\DESKTOP\NYP_FRAMEWORK_GAMEDEV\COMMON\DEBUG\MATRIXSTACK.OBJ
C:\USERS\WYVERNK\DESKTOP\NYP_FRAMEWORK_GAMEDEV\COMMON\DEBUG\MESH.OBJ
C:\USERS\WYVERNK\DESKTOP\NYP_FRAMEWORK_GAMEDEV\COMMON\DEBUG\MESHBUILDER.OBJ
C:\USERS\WYVERNK\DESKTOP\NYP_FRAMEWORK_GAMEDEV\COMMON\DEBUG\MOUSECONTROLLER.OBJ
C:\USERS\WYVERNK\DESKTOP\NYP_FRAMEWORK_GAMEDEV\COMMON\DEBUG\MTX44.OBJ
C:\USERS\WYVERNK\DESKTOP\NYP_FRAMEWORK_GAMEDEV\COMMON\DEBUG\RENDERHELPER.OBJ
C:\USERS\WYVERNK\DESKTOP\NYP_FRAMEWORK_GAMEDEV\COMMON\DEBUG\SCENEMANAGER.OBJ
C:\USERS\WYVERNK\DESKTOP\NYP_FRAMEWORK_GAMEDEV\COMMON\DEBUG\SHADERPROGRAM.OBJ
C:\USERS\WYVERNK\DESKTOP\NYP_FRAMEWORK_GAMEDEV\COMMON\DEBUG\TIMER.OBJ
C:\USERS\WYVERNK\DESKTOP\NYP_FRAMEWORK_GAMEDEV\COMMON\DEBUG\UTILITY.OBJ
C:\USERS\WYVERNK\DESKTOP\NYP_FRAMEWORK_GAMEDEV\COMMON\DEBUG\VECTOR2.OBJ
C:\USERS\WYVERNK\DESKTOP\NYP_FRAMEWORK_GAMEDEV\COMMON\DEBUG\VECTOR3.OBJ
C:\USERS\WYVERNK\DESKTOP\NYP_FRAMEWORK_GAMEDEV\COMMON\DEBUG\WIN32INPUT.OBJ
